A Bridge Too Far Notebook
…
A Bridge Too Far Notebook

Importing Libraries and Data Set:

# A tibble: 214 × 10
   date  day     HighTempF LowTempF precipitation brooklynbridge manhattanbridge
   <chr> <chr>       <dbl>    <dbl> <chr>                  <dbl>           <dbl>
 1 4/1   Saturd…      46       37   0.00                     606            1446
 2 4/2   Sunday       62.1     41   0.00                    2021            3943
 3 4/3   Monday       63       50   0.03                    2470            4988
 4 4/4   Tuesday      51.1     46   1.18                     723            1913
 5 4/5   Wednes…      63       46   0.00                    2807            5276
 6 4/6   Thursd…      48.9     41   0.73                     461            1324
 7 4/7   Friday       48       43   T                       1222            2955
 8 4/8   Saturd…      55.9     39.9 0.00                    1674            3163
 9 4/9   Sunday       66       45   0.00                    2375            4377
10 4/10  Monday       73.9     55   0.00                    3324            6359
# ℹ 204 more rows
# ℹ 3 more variables: williamsburgbridge <dbl>, queensborobridge <dbl>,
#   total <dbl>
…
Converting precipitation from <chr> to <dbl>

 [1] "date"               "day"                "HighTempF"         
 [4] "LowTempF"           "precipitation"      "brooklynbridge"    
 [7] "manhattanbridge"    "williamsburgbridge" "queensborobridge"  
[10] "total"              "month"              "rain"              
[13] "average_temp"      

Removed columns HighTempF, LowTempF, Precipitation.

NY_cycling_data <- NY_cycling_data[, c("date", "day", "brooklynbridge", "manhattanbridge", "williamsburgbridge", "queensborobridge", "total", "month", "rain", "average_temp")]
NY_cycling_data

# A tibble: 214 × 10
   date       day       brooklynbridge manhattanbridge williamsburgbridge
   <date>     <chr>              <dbl>           <dbl>              <dbl>
 1 2017-04-01 Saturday             606            1446               1915
 2 2017-04-02 Sunday              2021            3943               4207
 3 2017-04-03 Monday              2470            4988               5178
 4 2017-04-04 Tuesday              723            1913               2279
 5 2017-04-05 Wednesday           2807            5276               5711
 6 2017-04-06 Thursday             461            1324               1739
 7 2017-04-07 Friday              1222            2955               3399
 8 2017-04-08 Saturday            1674            3163               4082
 9 2017-04-09 Sunday              2375            4377               4886
10 2017-04-10 Monday              3324            6359               6881
# ℹ 204 more rows
# ℹ 5 more variables: queensborobridge <dbl>, total <dbl>, month <dbl>,
#   rain <dbl>, average_temp <dbl>

unique(NY_cycling_data$month)

[1]  4  5  6  7  8  9 10

Converted months

# Convert numeric months to labels
month_labels <- c("April", "May", "June", "July", "August", "September", "October")
NY_cycling_data$month <- month_labels[NY_cycling_data$month - min(NY_cycling_data$month) + 1]
NY_cycling_data

# A tibble: 214 × 10
   date       day       brooklynbridge manhattanbridge williamsburgbridge
   <date>     <chr>              <dbl>           <dbl>              <dbl>
 1 2017-04-01 Saturday             606            1446               1915
 2 2017-04-02 Sunday              2021            3943               4207
 3 2017-04-03 Monday              2470            4988               5178
 4 2017-04-04 Tuesday              723            1913               2279
 5 2017-04-05 Wednesday           2807            5276               5711
 6 2017-04-06 Thursday             461            1324               1739
 7 2017-04-07 Friday              1222            2955               3399
 8 2017-04-08 Saturday            1674            3163               4082
 9 2017-04-09 Sunday              2375            4377               4886
10 2017-04-10 Monday              3324            6359               6881
# ℹ 204 more rows
# ℹ 5 more variables: queensborobridge <dbl>, total <dbl>, month <chr>,
#   rain <dbl>, average_temp <dbl>
…
Modeling:

I will be centering since there’s interaction:

#Centering on its mean
brooklynbridge_data <-NY_cycling_data %>% select(brooklynbridge,rain, average_temp, weekend,month)
centered_brooklynbridge_data <- brooklynbridge_data %>%
  mutate(rain = rain - mean(rain), average_temp = average_temp - mean(average_temp))
centered_brooklynbridge_data

# A tibble: 214 × 5
   brooklynbridge   rain average_temp weekend month
            <dbl>  <dbl>        <dbl>   <dbl> <chr>
 1            606 -0.132       -26.6        1 April
 2           2021 -0.132       -16.6        1 April
 3           2470 -0.102       -11.6        0 April
 4            723  1.05        -19.6        0 April
 5           2807 -0.132       -13.6        0 April
 6            461  0.598       -23.2        0 April
 7           1222 -0.131       -22.6        0 April
 8           1674 -0.132       -20.2        1 April
 9           2375 -0.132       -12.6        1 April
10           3324 -0.132        -3.66       0 April
# ℹ 204 more rows
…
pois_dev_gof(bb_negbin_model) 

$pval
[1] 0.2216194

$df
[1] 203

#2 Queensboro Bridge

NY_cycling_data

# A tibble: 214 × 11
   date       day       brooklynbridge manhattanbridge williamsburgbridge
   <date>     <chr>              <dbl>           <dbl>              <dbl>
 1 2017-04-01 Saturday             606            1446               1915
 2 2017-04-02 Sunday              2021            3943               4207
 3 2017-04-03 Monday              2470            4988               5178
 4 2017-04-04 Tuesday              723            1913               2279
 5 2017-04-05 Wednesday           2807            5276               5711
 6 2017-04-06 Thursday             461            1324               1739
 7 2017-04-07 Friday              1222            2955               3399
 8 2017-04-08 Saturday            1674            3163               4082
 9 2017-04-09 Sunday              2375            4377               4886
10 2017-04-10 Monday              3324            6359               6881
# ℹ 204 more rows
# ℹ 6 more variables: queensborobridge <dbl>, total <dbl>, month <chr>,
#   rain <dbl>, average_temp <dbl>, weekend <dbl>
…
Modeling:

queensborobridge_data <-NY_cycling_data %>% select(queensborobridge,rain, average_temp, weekend,month)

centered_queensborobridge_data <- queensborobridge_data %>%
  mutate(rain = rain - mean(rain), average_temp = average_temp - mean(average_temp))
centered_queensborobridge_data

# A tibble: 214 × 5
   queensborobridge   rain average_temp weekend month
              <dbl>  <dbl>        <dbl>   <dbl> <chr>
 1             1430 -0.132       -26.6        1 April
 2             2862 -0.132       -16.6        1 April
 3             3689 -0.102       -11.6        0 April
 4             1666  1.05        -19.6        0 April
 5             4197 -0.132       -13.6        0 April
 6             1372  0.598       -23.2        0 April
 7             2765 -0.131       -22.6        0 April
 8             2691 -0.132       -20.2        1 April
 9             3261 -0.132       -12.6        1 April
10             4731 -0.132        -3.66       0 April
# ℹ 204 more rows

centered_queensborobridge_data <- queensborobridge_data %>%
  mutate(rain = rain - mean(rain), average_temp = average_temp - mean(average_temp))
centered_queensborobridge_data

# A tibble: 214 × 5
   queensborobridge   rain average_temp weekend month
              <dbl>  <dbl>        <dbl>   <dbl> <chr>
 1             1430 -0.132       -26.6        1 April
 2             2862 -0.132       -16.6        1 April
 3             3689 -0.102       -11.6        0 April
 4             1666  1.05        -19.6        0 April
 5             4197 -0.132       -13.6        0 April
 6             1372  0.598       -23.2        0 April
 7             2765 -0.131       -22.6        0 April
 8             2691 -0.132       -20.2        1 April
 9             3261 -0.132       -12.6        1 April
10             4731 -0.132        -3.66       0 April
# ℹ 204 more rows
…
Modeling:

I will be centering since there’s interaction:

#Centering on its mean

manhattanbridge_data <-NY_cycling_data %>% select(manhattanbridge,rain, average_temp, weekend,month)

centered_manhattanbridge_data <- manhattanbridge_data %>%
  mutate(rain = rain - mean(rain), average_temp = average_temp - mean(average_temp))
centered_manhattanbridge_data

# A tibble: 214 × 5
   manhattanbridge   rain average_temp weekend month
             <dbl>  <dbl>        <dbl>   <dbl> <chr>
 1            1446 -0.132       -26.6        1 April
 2            3943 -0.132       -16.6        1 April
 3            4988 -0.102       -11.6        0 April
 4            1913  1.05        -19.6        0 April
 5            5276 -0.132       -13.6        0 April
 6            1324  0.598       -23.2        0 April
 7            2955 -0.131       -22.6        0 April
 8            3163 -0.132       -20.2        1 April
 9            4377 -0.132       -12.6        1 April
10            6359 -0.132        -3.66       0 April
# ℹ 204 more rows
…
